32 32
    0     0    0.06593   -0.05693    0.05924
    0     1    0.08183   -0.12046    0.14195
    0     2    0.11904   -0.19930    0.22014
    0     3    0.20769   -0.30709    0.25028
    0     4    0.44520   -0.46584    0.09746
    0     5    0.67803   -0.20215    0.64047
    0     6    0.75028    0.01750    0.85338
    0     7    0.74941    0.22417    0.98406
    0     8    0.67537    0.44551    1.07086
    0     9    0.44055    0.71266    1.08930
    0    10    0.20074    0.55940    0.84828
    0    11    0.10923    0.45949    0.71275
    0    12    0.06830    0.39151    0.62740
    0    13    0.04723    0.34277    0.56838
    0    14    0.03514    0.30602    0.52454
    0    15    0.02763    0.27707    0.49015
    0    16    0.02273    0.25335    0.46198
    0    17    0.01942    0.23322    0.43803
    0    18    0.01717    0.21557    0.41699
    0    19    0.01567    0.19961    0.39793
    0    20    0.01471    0.18477    0.38015
    0    21    0.01417    0.17061    0.36307
    0    22    0.01396    0.15676    0.34623
    0    23    0.01400    0.14295    0.32920
    0    24    0.01425    0.12896    0.31159
    0    25    0.01464    0.11461    0.29300
    0    26    0.01514    0.09978    0.27305
    0    27    0.01569    0.08438    0.25129
    0    28    0.01623    0.06840    0.22726
    0    29    0.01672    0.05187    0.20034
    0    30    0.01711    0.03487    0.16962
    0    31    0.01736    0.01753    0.13352
    1     0    0.12046   -0.04583    0.21074
    1     1    0.14237   -0.09376    0.16294
    1     2    0.18663   -0.14456    0.14941
    1     3    0.26654   -0.19332    0.20834
    1     4    0.39506   -0.21365    0.35909
    1     5    0.51666   -0.09998    0.59140
    1     6    0.57368    0.04451    0.74933
    1     7    0.57200    0.19450    0.85253
    1     8    0.51150    0.34052    0.90839
    1     9    0.38610    0.45731    0.90287
    1    10    0.25318    0.44188    0.80392
    1    11    0.16789    0.40007    0.71218
    1    12    0.11672    0.35867    0.64007
    1    13    0.08549    0.32316    0.58454
    1    14    0.06569    0.29358    0.54108
    1    15    0.05267    0.26882    0.50617
    1    16    0.04385    0.24772    0.47736
    1    17    0.03778    0.22932    0.45291
    1    18    0.03361    0.21289    0.43160
    1    19    0.03079    0.19783    0.41254
    1    20    0.02901    0.18367    0.39503
    1    21    0.02801    0.17004    0.37850
    1    22    0.02765    0.15662    0.36248
    1    23    0.02780    0.14316    0.34652
    1    24    0.02834    0.12943    0.33024
    1    25    0.02919    0.11528    0.31322
    1    26    0.03023    0.10056    0.29509
    1    27    0.03137    0.08521    0.27541
    1    28    0.03251    0.06919    0.25374
    1    29    0.03353    0.05255    0.22958
    1    30    0.03435    0.03536    0.20229
    1    31    0.03487    0.01778    0.17095
    2     0    0.15969   -0.03263    0.29001
    2     1    0.18057   -0.06421    0.27509
    2     2    0.21859   -0.09189    0.28952
    2     3    0.27678   -0.10799    0.34388
    2     4    0.35186   -0.09548    0.44190
    2     5    0.41987   -0.02866    0.56944
    2     6    0.45580    0.06598    0.67685
    2     7    0.45340    0.16878    0.75223
    2     8    0.41256    0.26471    0.79151
    2     9    0.33919    0.33415    0.78875
    2    10    0.25798    0.35070    0.74239
    2    11    0.19245    0.34020    0.68527
    2    12    0.14521    0.31988    0.63171
    2    13    0.11232    0.29758    0.58560
    2    14    0.08948    0.27628    0.54692
    2    15    0.07350    0.25685    0.51450
    2    16    0.06222    0.23932    0.48709
    2    17    0.05425    0.22342    0.46357
    2    18    0.04867    0.20879    0.44302
    2    19    0.04489    0.19508    0.42472
    2    20    0.04250    0.18199    0.40806
    2    21    0.04122    0.16921    0.39252
    2    22    0.04084    0.15648    0.37766
    2    23    0.04119    0.14358    0.36306
    2    24    0.04213    0.13030    0.34831
    2    25    0.04352    0.11647    0.33301
    2    26    0.04521    0.10196    0.31673
    2    27    0.04706    0.08667    0.29904
    2    28    0.04889    0.07059    0.27950
    2    29    0.05055    0.05374    0.25760
    2    30    0.05187    0.03624    0.23281
    2    31    0.05272    0.01825    0.20447
    3     0    0.18467   -0.02047    0.33824
    3     1    0.20163   -0.03858    0.33682
    3     2    0.23041   -0.05080    0.35694
    3     3    0.27013   -0.05129    0.40187
    3     4    0.31573   -0.03166    0.46996
    3     5    0.35520    0.01482    0.55072
    3     6    0.37624    0.07925    0.62385
    3     7    0.37327    0.14991    0.67794
    3     8    0.34614    0.21534    0.70730
    3     9    0.30011    0.26383    0.70916
    3    10    0.24712    0.28651    0.68603
    3    11    0.19871    0.29012    0.65087
    3    12    0.15934    0.28302    0.61301
    3    13    0.12909    0.27094    0.57710
    3    14    0.10642    0.25706    0.54486
    3    15    0.08963    0.24294    0.51657
    3    16    0.07729    0.22925    0.49192
    3    17    0.06832    0.21618    0.47038
    3    18    0.06194    0.20370    0.45142
    3    19    0.05759    0.19169    0.43452
    3    20    0.05488    0.17995    0.41923
    3    21    0.05352    0.16828    0.40511
    3    22    0.05328    0.15648    0.39178
    3    23    0.05398    0.14435    0.37882
    3    24    0.05545    0.13168    0.36585
    3    25    0.05753    0.11831    0.35244
    3    26    0.06003    0.10409    0.33814
    3    27    0.06274    0.08891    0.32248
    3    28    0.06544    0.07273    0.30496
    3    29    0.06788    0.05558    0.28505
    3    30    0.06984    0.03759    0.26222
    3    31    0.07111    0.01896    0.23591
    4     0    0.19827   -0.01068    0.36637
    4     1    0.21090   -0.01885    0.37158
    4     2    0.23130   -0.02146    0.39186
    4     3    0.25764   -0.01472    0.42783
    4     4    0.28575    0.00530    0.47685
    4     5    0.30897    0.04032    0.53200
    4     6    0.32070    0.08625    0.58307
    4     7    0.31731    0.13625    0.62227
    4     8    0.29864    0.18288    0.64501
    4     9    0.26802    0.21929    0.64965
    4    10    0.23170    0.24135    0.63818
    4    11    0.19593    0.25069    0.61655
    4    12    0.16438    0.25110    0.59038
    4    13    0.13828    0.24605    0.56341
    4    14    0.11748    0.23803    0.53766
    4    15    0.10131    0.22856    0.51405
    4    16    0.08899    0.21851    0.49283
    4    17    0.07980    0.20830    0.47394
    4    18    0.07316    0.19812    0.45714
    4    19    0.06865    0.18797    0.44215
    4    20    0.06591    0.17779    0.42865
    4    21    0.06468    0.16744    0.41633
    4    22    0.06477    0.15678    0.40484
    4    23    0.06599    0.14561    0.39383
    4    24    0.06816    0.13374    0.38290
    4    25    0.07111    0.12098    0.37162
    4    26    0.07461    0.10716    0.35951
    4    27    0.07842    0.09213    0.34603
    4    28    0.08222    0.07582    0.33057
    4    29    0.08569    0.05825    0.31255
    4    30    0.08849    0.03956    0.29135
    4    31    0.09030    0.02001    0.26643
    5     0    0.20352   -0.00342    0.38084
    5     1    0.21241   -0.00468    0.38949
    5     2    0.22629   -0.00148    0.40840
    5     3    0.24338    0.00854    0.43727
    5     4    0.26069    0.02723    0.47377
    5     5    0.27425    0.05488    0.51336
    5     6    0.28031    0.08914    0.55021
    5     7    0.27663    0.12592    0.57929
    5     8    0.26310    0.16060    0.59736
    5     9    0.24164    0.18906    0.60326
    5    10    0.21572    0.20886    0.59811
    5    11    0.18896    0.22016    0.58494
    5    12    0.16399    0.22458    0.56713
    5    13    0.14216    0.22410    0.54736
    5    14    0.12391    0.22039    0.52743
    5    15    0.10915    0.21471    0.50841
    5    16    0.09755    0.20787    0.49083
    5    17    0.08871    0.20036    0.47489
    5    18    0.08227    0.19244    0.46060
    5    19    0.07792    0.18424    0.44786
    5    20    0.07541    0.17575    0.43648
    5    21    0.07453    0.16689    0.42625
    5    22    0.07512    0.15754    0.41690
    5    23    0.07702    0.14753    0.40812
    5    24    0.08008    0.13665    0.39953
    5    25    0.08411    0.12468    0.39069
    5    26    0.08888    0.11140    0.38105
    5    27    0.09408    0.09661    0.36999
    5    28    0.09932    0.08016    0.35678
    5    29    0.10415    0.06203    0.34068
    5    30    0.10808    0.04237    0.32095
    5    31    0.11066    0.02151    0.29696
    6     0    0.20295    0.00168    0.38599
    6     1    0.20895    0.00502    0.39648
    6     2    0.21808    0.01168    0.41378
    6     3    0.22893    0.02310    0.43739
    6     4    0.23941    0.04019    0.46550
    6     5    0.24706    0.06282    0.49513
    6     6    0.24966    0.08948    0.52267
    6     7    0.24585    0.11767    0.54490
    6     8    0.23550    0.14451    0.55960
    6     9    0.21975    0.16743    0.56592
    6    10    0.20059    0.18485    0.56438
    6    11    0.18022    0.19647    0.55666
    6    12    0.16045    0.20294    0.54478
    6    13    0.14247    0.20532    0.53062
    6    14    0.12687    0.20469    0.51563
    6    15    0.11384    0.20198    0.50080
    6    16    0.10334    0.19785    0.48675
    6    17    0.09522    0.19277    0.47383
    6    18    0.08928    0.18702    0.46220
    6    19    0.08534    0.18076    0.45189
    6    20    0.08326    0.17403    0.44284
    6    21    0.08289    0.16679    0.43494
    6    22    0.08413    0.15893    0.42798
    6    23    0.08688    0.15028    0.42172
    6    24    0.09101    0.14062    0.41579
    6    25    0.09636    0.12967    0.40973
    6    26    0.10269    0.11714    0.40295
    6    27    0.10966    0.10272    0.39470
    6    28    0.11680    0.08615    0.38409
    6    29    0.12348    0.06734    0.37014
    6    30    0.12900    0.04637    0.35187
    6    31    0.13267    0.02367    0.32844
    7     0    0.19849    0.00509    0.38481
    7     1    0.20240    0.01141    0.39629
    7     2    0.20821    0.02007    0.41217
    7     3    0.21487    0.03198    0.43198
    7     4    0.22098    0.04760    0.45440
    7     5    0.22496    0.06669    0.47744
    7     6    0.22545    0.08827    0.49880
    7     7    0.22161    0.11075    0.51637
    7     8    0.21334    0.13230    0.52865
    7     9    0.20130    0.15128    0.53500
    7    10    0.18668    0.16661    0.53565
    7    11    0.17088    0.17789    0.53152
    7    12    0.15514    0.18533    0.52390
    7    13    0.14040    0.18950    0.51407
    7    14    0.12725    0.19105    0.50315
    7    15    0.11600    0.19062    0.49200
    7    16    0.10676    0.18874    0.48121
    7    17    0.09954    0.18580    0.47121
    7    18    0.09428    0.18207    0.46224
    7    19    0.09091    0.17771    0.45444
    7    20    0.08938    0.17278    0.44785
    7    21    0.08963    0.16727    0.44244
    7    22    0.09162    0.16107    0.43808
    7    23    0.09533    0.15402    0.43459
    7    24    0.10069    0.14585    0.43165
    7    25    0.10759    0.13622    0.42879
    7    26    0.11584    0.12474    0.42536
    7    27    0.12506    0.11094    0.42049
    7    28    0.13470    0.09439    0.41305
    7    29    0.14393    0.07478    0.40172
    7    30    0.15175    0.05209    0.38510
    7    31    0.15703    0.02681    0.36197
    8     0    0.19154    0.00729    0.37939
    8     1    0.19397    0.01543    0.39138
    8     2    0.19751    0.02520    0.40611
    8     3    0.20140    0.03715    0.42320
    8     4    0.20470    0.05150    0.44172
    8     5    0.20639    0.06806    0.46034
    8     6    0.20560    0.08614    0.47753
    8     7    0.20182    0.10472    0.49192
    8     8    0.19497    0.12262    0.50248
    8     9    0.18544    0.13876    0.50873
    8    10    0.17398    0.15238    0.51076
    8    11    0.16149    0.16311    0.50911
    8    12    0.14884    0.17097    0.50459
    8    13    0.13675    0.17625    0.49811
    8    14    0.12574    0.17934    0.49051
    8    15    0.11615    0.18068    0.48251
    8    16    0.10816    0.18066    0.47465
    8    17    0.10189    0.17959    0.46738
    8    18    0.09737    0.17771    0.46098
    8    19    0.09463    0.17518    0.45566
    8    20    0.09370    0.17208    0.45156
    8    21    0.09460    0.16840    0.44871
    8    22    0.09738    0.16404    0.44710
    8    23    0.10210    0.15884    0.44661
    8    24    0.10880    0.15250    0.44697
    8    25    0.11746    0.14461    0.44777
    8    26    0.12797    0.13464    0.44832
    8    27    0.14001    0.12191    0.44761
    8    28    0.15296    0.10568    0.44424
    8    29    0.16578    0.08528    0.43638
    8    30    0.17697    0.06040    0.42195
    8    31    0.18477    0.03146    0.39898
    9     0    0.18306    0.00862    0.37115
    9     1    0.18449    0.01784    0.38338
    9     2    0.18649    0.02814    0.39721
    9     3    0.18857    0.03989    0.41236
    9     4    0.19006    0.05319    0.42819
    9     5    0.19032    0.06788    0.44379
    9     6    0.18879    0.08350    0.45816
    9     7    0.18513    0.09935    0.47036
    9     8    0.17930    0.11467    0.47971
    9     9    0.17154    0.12874    0.48586
    9    10    0.16233    0.14100    0.48882
    9    11    0.15228    0.15116    0.48893
    9    12    0.14200    0.15917    0.48673
    9    13    0.13203    0.16516    0.48285
    9    14    0.12282    0.16936    0.47796
    9    15    0.11469    0.17207    0.47261
    9    16    0.10786    0.17358    0.46733
    9    17    0.10248    0.17414    0.46253
    9    18    0.09868    0.17397    0.45853
    9    19    0.09654    0.17321    0.45559
    9    20    0.09616    0.17193    0.45392
    9    21    0.09766    0.17017    0.45364
    9    22    0.10118    0.16784    0.45485
    9    23    0.10687    0.16477    0.45751
    9    24    0.11492    0.16067    0.46148
    9    25    0.12545    0.15507    0.46642
    9    26    0.13854    0.14727    0.47169
    9    27    0.15402    0.13635    0.47618
    9    28    0.17132    0.12111    0.47821
    9    29    0.18921    0.10026    0.47530
    9    30    0.20556    0.07277    0.46423
    9    31    0.21744    0.03864    0.44159
   10     0    0.17371    0.00937    0.36106
   10     1    0.17446    0.01914    0.37337
   10     2    0.17546    0.02962    0.38651
   10     3    0.17635    0.04106    0.40028
   10     4    0.17670    0.05348    0.41423
   10     5    0.17608    0.06677    0.42776
   10     6    0.17414    0.08059    0.44020
   10     7    0.17065    0.09450    0.45091
   10     8    0.16559    0.10796    0.45943
   10     9    0.15911    0.12049    0.46550
   10    10    0.15155    0.13169    0.46914
   10    11    0.14332    0.14135    0.47054
   10    12    0.13485    0.14937    0.47010
   10    13    0.12656    0.15581    0.46827
   10    14    0.11883    0.16083    0.46556
   10    15    0.11192    0.16463    0.46245
   10    16    0.10609    0.16742    0.45939
   10    17    0.10150    0.16941    0.45677
   10    18    0.09831    0.17079    0.45494
   10    19    0.09667    0.17171    0.45420
   10    20    0.09674    0.17225    0.45482
   10    21    0.09870    0.17247    0.45703
   10    22    0.10278    0.17234    0.46101
   10    23    0.10927    0.17171    0.46688
   10    24    0.11850    0.17033    0.47466
   10    25    0.13086    0.16769    0.48419
   10    26    0.14669    0.16302    0.49496
   10    27    0.16617    0.15509    0.50596
   10    28    0.18905    0.14215    0.51530
   10    29    0.21413    0.12188    0.51977
   10    30    0.23860    0.09175    0.51450
   10    31    0.25753    0.05033    0.49319
   11     0    0.16392    0.00973    0.34979
   11     1    0.16423    0.01971    0.36208
   11     2    0.16458    0.03016    0.37469
   11     3    0.16471    0.04122    0.38746
   11     4    0.16435    0.05290    0.40011
   11     5    0.16321    0.06510    0.41221
   11     6    0.16106    0.07759    0.42331
   11     7    0.15777    0.09006    0.43300
   11     8    0.15331    0.10216    0.44096
   11     9    0.14781    0.11353    0.44702
   11    10    0.14147    0.12392    0.45116
   11    11    0.13461    0.13314    0.45356
   11    12    0.12753    0.14111    0.45447
   11    13    0.12056    0.14787    0.45426
   11    14    0.11400    0.15350    0.45332
   11    15    0.10810    0.15817    0.45205
   11    16    0.10307    0.16203    0.45086
   11    17    0.09911    0.16527    0.45013
   11    18    0.09639    0.16806    0.45019
   11    19    0.09508    0.17055    0.45140
   11    20    0.09540    0.17287    0.45409
   11    21    0.09758    0.17511    0.45857
   11    22    0.10194    0.17731    0.46515
   11    23    0.10888    0.17940    0.47412
   11    24    0.11894    0.18122    0.48574
   11    25    0.13276    0.18234    0.50012
   11    26    0.15114    0.18200    0.51711
   11    27    0.17489    0.17884    0.53604
   11    28    0.20453    0.17052    0.55520
   11    29    0.23961    0.15335    0.57096
   11    30    0.27712    0.12203    0.57635
   11    31    0.30919    0.07092    0.55969
   12     0    0.15400    0.00982    0.33777
   12     1    0.15402    0.01981    0.35000
   12     2    0.15395    0.03009    0.36220
   12     3    0.15361    0.04075    0.37425
   12     4    0.15282    0.05179    0.38597
   12     5    0.15139    0.06313    0.39708
   12     6    0.14917    0.07460    0.40727
   12     7    0.14608    0.08599    0.41627
   12     8    0.14211    0.09706    0.42386
   12     9    0.13735    0.10756    0.42993
   12    10    0.13195    0.11730    0.43449
   12    11    0.12613    0.12615    0.43765
   12    12    0.12012    0.13406    0.43962
   12    13    0.11417    0.14102    0.44068
   12    14    0.10853    0.14713    0.44116
   12    15    0.10340    0.15248    0.44139
   12    16    0.09899    0.15724    0.44175
   12    17    0.09547    0.16155    0.44257
   12    18    0.09303    0.16559    0.44422
   12    19    0.09186    0.16954    0.44707
   12    20    0.09217    0.17355    0.45150
   12    21    0.09426    0.17778    0.45791
   12    22    0.09849    0.18235    0.46674
   12    23    0.10536    0.18736    0.47848
   12    24    0.11557    0.19278    0.49365
   12    25    0.13007    0.19843    0.51278
   12    26    0.15019    0.20381    0.53629
   12    27    0.17766    0.20772    0.56433
   12    28    0.21453    0.20773    0.59614
   12    29    0.26261    0.19896    0.62884
   12    30    0.32103    0.17211    0.65431
   12    31    0.37957    0.11130    0.65250
   13     0    0.14412    0.00975    0.32530
   13     1    0.14396    0.01960    0.33745
   13     2    0.14363    0.02963    0.34932
   13     3    0.14301    0.03990    0.36086
   13     4    0.14197    0.05038    0.37192
   13     5    0.14040    0.06101    0.38234
   13     6    0.13820    0.07168    0.39190
   13     7    0.13531    0.08224    0.40044
   13     8    0.13175    0.09250    0.40779
   13     9    0.12756    0.10232    0.41391
   13    10    0.12288    0.11155    0.41880
   13    11    0.11785    0.12010    0.42256
   13    12    0.11266    0.12792    0.42535
   13    13    0.10749    0.13503    0.42741
   13    14    0.10254    0.14148    0.42901
   13    15    0.09799    0.14739    0.43043
   13    16    0.09401    0.15287    0.43200
   13    17    0.09075    0.15809    0.43406
   13    18    0.08840    0.16321    0.43696
   13    19    0.08713    0.16845    0.44107
   13    20    0.08716    0.17399    0.44682
   13    21    0.08877    0.18008    0.45469
   13    22    0.09236    0.18696    0.46522
   13    23    0.09846    0.19488    0.47909
   13    24    0.10786    0.20409    0.49711
   13    25    0.12173    0.21480    0.52026
   13    26    0.14186    0.22706    0.54974
   13    27    0.17096    0.24050    0.58695
   13    28    0.21329    0.25371    0.63327
   13    29    0.27523    0.26264    0.68929
   13    30    0.36478    0.25614    0.75131
   13    31    0.48130    0.20218    0.79586
   14     0    0.13440    0.00957    0.31258
   14     1    0.13414    0.01921    0.32464
   14     2    0.13365    0.02895    0.33626
   14     3    0.13287    0.03882    0.34741
   14     4    0.13171    0.04880    0.35801
   14     5    0.13009    0.05885    0.36795
   14     6    0.12795    0.06887    0.37708
   14     7    0.12526    0.07876    0.38530
   14     8    0.12203    0.08840    0.39252
   14     9    0.11831    0.09767    0.39869
   14    10    0.11418    0.10647    0.40385
   14    11    0.10976    0.11475    0.40808
   14    12    0.10519    0.12248    0.41151
   14    13    0.10061    0.12967    0.41434
   14    14    0.09617    0.13638    0.41678
   14    15    0.09202    0.14270    0.41911
   14    16    0.08829    0.14875    0.42160
   14    17    0.08513    0.15470    0.42456
   14    18    0.08267    0.16072    0.42833
   14    19    0.08108    0.16703    0.43329
   14    20    0.08054    0.17389    0.43988
   14    21    0.08129    0.18159    0.44860
   14    22    0.08369    0.19052    0.46009
   14    23    0.08823    0.20110    0.47515
   14    24    0.09564    0.21390    0.49480
   14    25    0.10710    0.22962    0.52043
   14    26    0.12449    0.24913    0.55394
   14    27    0.15101    0.27350    0.59804
   14    28    0.19240    0.30397    0.65687
   14    29    0.26018    0.34174    0.73744
   14    30    0.38149    0.38764    0.85428
   14    31    0.63571    0.44127    1.04550
   15     0    0.12491    0.00934    0.29974
   15     1    0.12459    0.01871    0.31170
   15     2    0.12402    0.02814    0.32313
   15     3    0.12316    0.03763    0.33400
   15     4    0.12195    0.04716    0.34427
   15     5    0.12033    0.05670    0.35386
   15     6    0.11829    0.06618    0.36271
   15     7    0.11578    0.07553    0.37072
   15     8    0.11284    0.08465    0.37785
   15     9    0.10948    0.09347    0.38409
   15    10    0.10579    0.10192    0.38947
   15    11    0.10184    0.10996    0.39405
   15    12    0.09774    0.11758    0.39796
   15    13    0.09359    0.12479    0.40136
   15    14    0.08952    0.13166    0.40443
   15    15    0.08562    0.13827    0.40740
   15    16    0.08201    0.14474    0.41051
   15    17    0.07879    0.15123    0.41405
   15    18    0.07607    0.15792    0.41833
   15    19    0.07396    0.16506    0.42370
   15    20    0.07259    0.17292    0.43058
   15    21    0.07215    0.18189    0.43947
   15    22    0.07286    0.19240    0.45103
   15    23    0.07508    0.20509    0.46607
   15    24    0.07934    0.22078    0.48571
   15    25    0.08650    0.24063    0.51148
   15    26    0.09797    0.26633    0.54560
   15    27    0.11613    0.30042    0.59128
   15    28    0.14505    0.34691    0.65337
   15    29    0.19155    0.41272    0.73917
   15    30    0.26525    0.51141    0.85929
   15    31    0.36894    0.67525    1.02629
   16     0    0.11569    0.00907    0.28684
   16     1    0.11534    0.01815    0.29872
   16     2    0.11474    0.02726    0.31000
   16     3    0.11384    0.03638    0.32066
   16     4    0.11263    0.04552    0.33070
   16     5    0.11106    0.05461    0.34006
   16     6    0.10912    0.06363    0.34871
   16     7    0.10679    0.07252    0.35658
   16     8    0.10409    0.08120    0.36367
   16     9    0.10104    0.08964    0.36998
   16    10    0.09769    0.09777    0.37552
   16    11    0.09410    0.10558    0.38037
   16    12    0.09035    0.11307    0.38463
   16    13    0.08652    0.12026    0.38842
   16    14    0.08269    0.12720    0.39192
   16    15    0.07894    0.13397    0.39529
   16    16    0.07533    0.14071    0.39877
   16    17    0.07195    0.14755    0.40258
   16    18    0.06884    0.15468    0.40700
   16    19    0.06607    0.16235    0.41233
   16    20    0.06371    0.17087    0.41896
   16    21    0.06182    0.18062    0.42732
   16    22    0.06049    0.19212    0.43799
   16    23    0.05985    0.20608    0.45171
   16    24    0.06010    0.22349    0.46948
   16    25    0.06155    0.24579    0.49269
   16    26    0.06471    0.27515    0.52333
   16    27    0.07043    0.31492    0.56430
   16    28    0.08009    0.37053    0.61985
   16    29    0.09568    0.45083    0.69592
   16    30    0.11896    0.57002    0.79969
   16    31    0.14712    0.74834    0.93589
   17     0    0.10676    0.00878    0.27393
   17     1    0.10640    0.01757    0.28575
   17     2    0.10579    0.02636    0.29692
   17     3    0.10490    0.03514    0.30744
   17     4    0.10372    0.04390    0.31731
   17     5    0.10221    0.05261    0.32651
   17     6    0.10038    0.06122    0.33502
   17     7    0.09821    0.06971    0.34282
   17     8    0.09572    0.07801    0.34989
   17     9    0.09292    0.08610    0.35624
   17    10    0.08984    0.09395    0.36191
   17    11    0.08654    0.10154    0.36695
   17    12    0.08307    0.10887    0.37144
   17    13    0.07947    0.11597    0.37549
   17    14    0.07580    0.12290    0.37924
   17    15    0.07211    0.12973    0.38282
   17    16    0.06844    0.13657    0.38642
   17    17    0.06482    0.14357    0.39023
   17    18    0.06126    0.15091    0.39446
   17    19    0.05777    0.15881    0.39936
   17    20    0.05433    0.16758    0.40523
   17    21    0.05089    0.17760    0.41240
   17    22    0.04739    0.18938    0.42131
   17    23    0.04370    0.20362    0.43248
   17    24    0.03963    0.22132    0.44662
   17    25    0.03485    0.24391    0.46466
   17    26    0.02884    0.27354    0.48790
   17    27    0.02074    0.31359    0.51821
   17    28    0.00915    0.36948    0.55838
   17    29   -0.00793    0.45004    0.61280
   17    30   -0.03226    0.56949    0.68881
   17    31   -0.06104    0.74807    0.79834
   18     0    0.09812    0.00850    0.26103
   18     1    0.09776    0.01699    0.27281
   18     2    0.09716    0.02547    0.28390
   18     3    0.09630    0.03393    0.29432
   18     4    0.09517    0.04234    0.30409
   18     5    0.09374    0.05070    0.31319
   18     6    0.09202    0.05895    0.32162
   18     7    0.09000    0.06708    0.32936
   18     8    0.08769    0.07505    0.33643
   18     9    0.08510    0.08282    0.34282
   18    10    0.08225    0.09040    0.34858
   18    11    0.07918    0.09775    0.35374
   18    12    0.07592    0.10490    0.35838
   18    13    0.07249    0.11187    0.36257
   18    14    0.06893    0.11870    0.36643
   18    15    0.06526    0.12548    0.37005
   18    16    0.06149    0.13229    0.37358
   18    17    0.05761    0.13927    0.37715
   18    18    0.05360    0.14657    0.38093
   18    19    0.04940    0.15441    0.38506
   18    20    0.04492    0.16304    0.38976
   18    21    0.04002    0.17282    0.39521
   18    22    0.03446    0.18418    0.40164
   18    23    0.02791    0.19772    0.40930
   18    24    0.01982    0.21427    0.41844
   18    25    0.00933    0.23497    0.42930
   18    26   -0.00498    0.26152    0.44207
   18    27   -0.02551    0.29644    0.45678
   18    28   -0.05636    0.34375    0.47324
   18    29   -0.10433    0.41036    0.49143
   18    30   -0.17907    0.50984    0.51489
   18    31   -0.28339    0.67447    0.56933
   19     0    0.08977    0.00821    0.24814
   19     1    0.08943    0.01642    0.25990
   19     2    0.08885    0.02461    0.27095
   19     3    0.08802    0.03276    0.28132
   19     4    0.08695    0.04086    0.29103
   19     5    0.08561    0.04889    0.30007
   19     6    0.08400    0.05682    0.30845
   19     7    0.08212    0.06462    0.31618
   19     8    0.07997    0.07228    0.32325
   19     9    0.07757    0.07976    0.32968
   19    10    0.07492    0.08707    0.33549
   19    11    0.07204    0.09418    0.34073
   19    12    0.06895    0.10112    0.34544
   19    13    0.06566    0.10791    0.34969
   19    14    0.06219    0.11458    0.35354
   19    15    0.05852    0.12120    0.35708
   19    16    0.05465    0.12786    0.36038
   19    17    0.05054    0.13465    0.36355
   19    18    0.04612    0.14171    0.36666
   19    19    0.04130    0.14922    0.36979
   19    20    0.03592    0.15738    0.37303
   19    21    0.02976    0.16647    0.37641
   19    22    0.02249    0.17681    0.37993
   19    23    0.01361    0.18883    0.38351
   19    24    0.00238    0.20307    0.38691
   19    25   -0.01240    0.22021    0.38958
   19    26   -0.03262    0.24113    0.39037
   19    27   -0.06149    0.26689    0.38687
   19    28   -0.10478    0.29871    0.37376
   19    29   -0.17402    0.33783    0.33775
   19    30   -0.29637    0.38504    0.23371
   19    31   -0.55120    0.43997    0.26775
   20     0    0.08170    0.00794    0.23524
   20     1    0.08137    0.01588    0.24702
   20     2    0.08082    0.02378    0.25807
   20     3    0.08005    0.03165    0.26842
   20     4    0.07904    0.03945    0.27811
   20     5    0.07779    0.04718    0.28713
   20     6    0.07629    0.05481    0.29550
   20     7    0.07454    0.06232    0.30323
   20     8    0.07255    0.06969    0.31032
   20     9    0.07031    0.07690    0.31678
   20    10    0.06784    0.08394    0.32264
   20    11    0.06513    0.09081    0.32792
   20    12    0.06219    0.09751    0.33266
   20    13    0.05903    0.10408    0.33689
   20    14    0.05564    0.11053    0.34066
   20    15    0.05199    0.11691    0.34402
   20    16    0.04805    0.12330    0.34700
   20    17    0.04376    0.12977    0.34964
   20    18    0.03903    0.13643    0.35197
   20    19    0.03373    0.14339    0.35397
   20    20    0.02767    0.15082    0.35561
   20    21    0.02059    0.15888    0.35677
   20    22    0.01210    0.16777    0.35725
   20    23    0.00165    0.17773    0.35666
   20    24   -0.01157    0.18897    0.35430
   20    25   -0.02874    0.20169    0.34894
   20    26   -0.05166    0.21592    0.33831
   20    27   -0.08309    0.23129    0.31806
   20    28   -0.12729    0.24640    0.27898
   20    29   -0.19066    0.25719    0.19670
   20    30   -0.28122    0.25253    0.11876
   20    31   -0.39835    0.20038    0.37841
   21     0    0.07389    0.00769    0.22231
   21     1    0.07359    0.01536    0.23414
   21     2    0.07308    0.02300    0.24523
   21     3    0.07235    0.03060    0.25561
   21     4    0.07141    0.03814    0.26532
   21     5    0.07025    0.04559    0.27436
   21     6    0.06886    0.05295    0.28275
   21     7    0.06724    0.06018    0.29050
   21     8    0.06540    0.06728    0.29763
   21     9    0.06332    0.07422    0.30413
   21    10    0.06101    0.08100    0.31002
   21    11    0.05846    0.08762    0.31533
   21    12    0.05568    0.09407    0.32006
   21    13    0.05265    0.10038    0.32424
   21    14    0.04935    0.10656    0.32788
   21    15    0.04575    0.11265    0.33101
   21    16    0.04179    0.11869    0.33362
   21    17    0.03741    0.12473    0.33569
   21    18    0.03250    0.13086    0.33719
   21    19    0.02691    0.13713    0.33804
   21    20    0.02043    0.14364    0.33808
   21    21    0.01281    0.15047    0.33710
   21    22    0.00364    0.15769    0.33469
   21    23   -0.00758    0.16535    0.33023
   21    24   -0.02159    0.17341    0.32270
   21    25   -0.03935    0.18166    0.31041
   21    26   -0.06223    0.18957    0.29039
   21    27   -0.09197    0.19597    0.25717
   21    28   -0.13068    0.19841    0.19883
   21    29   -0.18015    0.19201    0.06991
   21    30   -0.23955    0.16750    0.20634
   21    31   -0.29867    0.10901    0.36880
   22     0    0.06634    0.00745    0.20931
   22     1    0.06606    0.01488    0.22125
   22     2    0.06558    0.02228    0.23242
   22     3    0.06491    0.02963    0.24287
   22     4    0.06405    0.03692    0.25264
   22     5    0.06298    0.04412    0.26173
   22     6    0.06170    0.05122    0.27018
   22     7    0.06021    0.05820    0.27799
   22     8    0.05851    0.06504    0.28516
   22     9    0.05658    0.07173    0.29172
   22    10    0.05444    0.07826    0.29765
   22    11    0.05206    0.08461    0.30298
   22    12    0.04943    0.09081    0.30770
   22    13    0.04655    0.09683    0.31181
   22    14    0.04337    0.10271    0.31532
   22    15    0.03986    0.10845    0.31821
   22    16    0.03596    0.11409    0.32043
   22    17    0.03159    0.11965    0.32195
   22    18    0.02663    0.12516    0.32266
   22    19    0.02095    0.13066    0.32242
   22    20    0.01433    0.13616    0.32101
   22    21    0.00654    0.14169    0.31809
   22    22   -0.00278    0.14720    0.31317
   22    23   -0.01407    0.15260    0.30545
   22    24   -0.02787    0.15767    0.29374
   22    25   -0.04490    0.16198    0.27612
   22    26   -0.06597    0.16476    0.24936
   22    27   -0.09193    0.16462    0.20744
   22    28   -0.12333    0.15925    0.13589
   22    29   -0.15976    0.14497    0.07980
   22    30   -0.19821    0.11648    0.22256
   22    31   -0.23084    0.06815    0.33638
   23     0    0.05902    0.00723    0.19619
   23     1    0.05876    0.01443    0.20829
   23     2    0.05832    0.02161    0.21960
   23     3    0.05771    0.02874    0.23017
   23     4    0.05692    0.03579    0.24004
   23     5    0.05595    0.04276    0.24924
   23     6    0.05478    0.04963    0.25778
   23     7    0.05342    0.05637    0.26567
   23     8    0.05187    0.06297    0.27293
   23     9    0.05010    0.06942    0.27955
   23    10    0.04812    0.07570    0.28555
   23    11    0.04591    0.08181    0.29091
   23    12    0.04346    0.08773    0.29563
   23    13    0.04075    0.09347    0.29970
   23    14    0.03773    0.09902    0.30308
   23    15    0.03437    0.10440    0.30575
   23    16    0.03060    0.10960    0.30764
   23    17    0.02634    0.11464    0.30866
   23    18    0.02149    0.11950    0.30868
   23    19    0.01590    0.12420    0.30751
   23    20    0.00940    0.12870    0.30487
   23    21    0.00177    0.13295    0.30037
   23    22   -0.00727    0.13685    0.29344
   23    23   -0.01805    0.14020    0.28323
   23    24   -0.03097    0.14271    0.26850
   23    25   -0.04644    0.14387    0.24729
   23    26   -0.06486    0.14287    0.21642
   23    27   -0.08646    0.13851    0.16976
   23    28   -0.11102    0.12903    0.08981
   23    29   -0.13737    0.11213    0.10998
   23    30   -0.16273    0.08529    0.21547
   23    31   -0.18220    0.04711    0.30086
   24     0    0.05190    0.00702    0.18289
   24     1    0.05167    0.01403    0.19523
   24     2    0.05128    0.02100    0.20674
   24     3    0.05073    0.02792    0.21749
   24     4    0.05002    0.03477    0.22751
   24     5    0.04914    0.04153    0.23685
   24     6    0.04809    0.04818    0.24553
   24     7    0.04687    0.05470    0.25355
   24     8    0.04546    0.06109    0.26092
   24     9    0.04385    0.06731    0.26766
   24    10    0.04205    0.07336    0.27374
   24    11    0.04003    0.07921    0.27917
   24    12    0.03777    0.08487    0.28392
   24    13    0.03525    0.09032    0.28797
   24    14    0.03244    0.09555    0.29128
   24    15    0.02928    0.10055    0.29379
   24    16    0.02572    0.10531    0.29542
   24    17    0.02168    0.10982    0.29605
   24    18    0.01707    0.11406    0.29553
   24    19    0.01175    0.11797    0.29364
   24    20    0.00558    0.12152    0.29006
   24    21   -0.00161    0.12459    0.28439
   24    22   -0.01004    0.12706    0.27603
   24    23   -0.01993    0.12868    0.26415
   24    24   -0.03154    0.12913    0.24755
   24    25   -0.04506    0.12793    0.22440
   24    26   -0.06061    0.12437    0.19175
   24    27   -0.07808    0.11754    0.14377
   24    28   -0.09695    0.10625    0.06041
   24    29   -0.11602    0.08923    0.11397
   24    30   -0.13320    0.06546    0.19883
   24    31   -0.14555    0.03501    0.26676
   25     0    0.04498    0.00684    0.16933
   25     1    0.04478    0.01367    0.18199
   25     2    0.04443    0.02046    0.19378
   25     3    0.04395    0.02719    0.20477
   25     4    0.04332    0.03385    0.21502
   25     5    0.04254    0.04042    0.22456
   25     6    0.04161    0.04688    0.23342
   25     7    0.04052    0.05321    0.24161
   25     8    0.03926    0.05939    0.24915
   25     9    0.03783    0.06540    0.25603
   25    10    0.03621    0.07123    0.26225
   25    11    0.03440    0.07686    0.26778
   25    12    0.03236    0.08226    0.27262
   25    13    0.03007    0.08743    0.27671
   25    14    0.02750    0.09234    0.28001
   25    15    0.02460    0.09698    0.28244
   25    16    0.02133    0.10132    0.28392
   25    17    0.01760    0.10533    0.28431
   25    18    0.01334    0.10896    0.28343
   25    19    0.00844    0.11216    0.28106
   25    20    0.00278    0.11484    0.27688
   25    21   -0.00377    0.11689    0.27047
   25    22   -0.01136    0.11814    0.26127
   25    23   -0.02013    0.11836    0.24851
   25    24   -0.03022    0.11724    0.23109
   25    25   -0.04168    0.11436    0.20742
   25    26   -0.05447    0.10918    0.17491
   25    27   -0.06834    0.10103    0.12843
   25    28   -0.08271    0.08922    0.04875
   25    29   -0.09659    0.07308    0.10537
   25    30   -0.10851    0.05234    0.17772
   25    31   -0.11673    0.02745    0.23467
   26     0    0.03823    0.00669    0.15540
   26     1    0.03806    0.01335    0.16851
   26     2    0.03776    0.01998    0.18067
   26     3    0.03734    0.02655    0.19198
   26     4    0.03679    0.03305    0.20252
   26     5    0.03611    0.03945    0.21233
   26     6    0.03531    0.04574    0.22143
   26     7    0.03436    0.05189    0.22986
   26     8    0.03326    0.05789    0.23761
   26     9    0.03201    0.06372    0.24470
   26    10    0.03060    0.06934    0.25110
   26    11    0.02900    0.07475    0.25680
   26    12    0.02720    0.07993    0.26178
   26    13    0.02517    0.08483    0.26598
   26    14    0.02289    0.08945    0.26935
   26    15    0.02031    0.09376    0.27182
   26    16    0.01738    0.09770    0.27327
   26    17    0.01404    0.10125    0.27358
   26    18    0.01024    0.10434    0.27255
   26    19    0.00587    0.10690    0.26997
   26    20    0.00086    0.10883    0.26552
   26    21   -0.00490    0.11001    0.25881
   26    22   -0.01151    0.11028    0.24933
   26    23   -0.01904    0.10941    0.23639
   26    24   -0.02754    0.10713    0.21905
   26    25   -0.03700    0.10312    0.19597
   26    26   -0.04729    0.09696    0.16507
   26    27   -0.05812    0.08823    0.12223
   26    28   -0.06899    0.07652    0.05319
   26    29   -0.07914    0.06155    0.08854
   26    30   -0.08757    0.04336    0.15393
   26    31   -0.09322    0.02247    0.20410
   27     0    0.03163    0.00655    0.14097
   27     1    0.03148    0.01308    0.15466
   27     2    0.03123    0.01957    0.16731
   27     3    0.03088    0.02601    0.17905
   27     4    0.03042    0.03236    0.18997
   27     5    0.02985    0.03862    0.20012
   27     6    0.02917    0.04476    0.20955
   27     7    0.02837    0.05076    0.21827
   27     8    0.02744    0.05660    0.22631
   27     9    0.02638    0.06226    0.23366
   27    10    0.02518    0.06771    0.24031
   27    11    0.02381    0.07293    0.24625
   27    12    0.02228    0.07789    0.25145
   27    13    0.02054    0.08257    0.25585
   27    14    0.01858    0.08693    0.25940
   27    15    0.01636    0.09093    0.26201
   27    16    0.01383    0.09452    0.26358
   27    17    0.01096    0.09767    0.26398
   27    18    0.00769    0.10029    0.26302
   27    19    0.00394    0.10231    0.26049
   27    20   -0.00034    0.10362    0.25610
   27    21   -0.00521    0.10410    0.24950
   27    22   -0.01075    0.10359    0.24023
   27    23   -0.01699    0.10190    0.22771
   27    24   -0.02392    0.09880    0.21116
   27    25   -0.03151    0.09404    0.18953
   27    26   -0.03959    0.08734    0.16122
   27    27   -0.04790    0.07842    0.12326
   27    28   -0.05603    0.06709    0.06701
   27    29   -0.06343    0.05325    0.06376
   27    30   -0.06943    0.03709    0.12761
   27    31   -0.07338    0.01906    0.17416
   28     0    0.02516    0.00644    0.12582
   28     1    0.02503    0.01286    0.14032
   28     2    0.02483    0.01923    0.15362
   28     3    0.02455    0.02555    0.16592
   28     4    0.02417    0.03179    0.17732
   28     5    0.02371    0.03793    0.18791
   28     6    0.02316    0.04395    0.19774
   28     7    0.02252    0.04983    0.20684
   28     8    0.02177    0.05553    0.21523
   28     9    0.02091    0.06105    0.22292
   28    10    0.01993    0.06635    0.22990
   28    11    0.01882    0.07141    0.23616
   28    12    0.01756    0.07619    0.24165
   28    13    0.01614    0.08067    0.24635
   28    14    0.01453    0.08480    0.25018
   28    15    0.01271    0.08855    0.25308
   28    16    0.01064    0.09185    0.25492
   28    17    0.00828    0.09466    0.25559
   28    18    0.00560    0.09689    0.25492
   28    19    0.00254    0.09846    0.25270
   28    20   -0.00094    0.09928    0.24868
   28    21   -0.00487    0.09921    0.24255
   28    22   -0.00931    0.09811    0.23392
   28    23   -0.01425    0.09583    0.22230
   28    24   -0.01968    0.09217    0.20709
   28    25   -0.02554    0.08694    0.18747
   28    26   -0.03167    0.07996    0.16230
   28    27   -0.03787    0.07106    0.12961
   28    28   -0.04382    0.06017    0.08473
   28    29   -0.04914    0.04730    0.02280
   28    30   -0.05338    0.03268    0.09763
   28    31   -0.05613    0.01671    0.14369
   29     0    0.01878    0.00635    0.10967
   29     1    0.01869    0.01268    0.12528
   29     2    0.01853    0.01897    0.13945
   29     3    0.01832    0.02520    0.15247
   29     4    0.01804    0.03135    0.16449
   29     5    0.01769    0.03739    0.17563
   29     6    0.01727    0.04331    0.18596
   29     7    0.01678    0.04909    0.19553
   29     8    0.01621    0.05469    0.20437
   29     9    0.01556    0.06010    0.21248
   29    10    0.01482    0.06528    0.21987
   29    11    0.01397    0.07021    0.22653
   29    12    0.01302    0.07485    0.23243
   29    13    0.01193    0.07916    0.23752
   29    14    0.01070    0.08312    0.24175
   29    15    0.00931    0.08666    0.24506
   29    16    0.00772    0.08973    0.24733
   29    17    0.00593    0.09226    0.24845
   29    18    0.00388    0.09419    0.24827
   29    19    0.00155    0.09543    0.24661
   29    20   -0.00108    0.09587    0.24324
   29    21   -0.00405    0.09539    0.23790
   29    22   -0.00737    0.09387    0.23026
   29    23   -0.01104    0.09117    0.21992
   29    24   -0.01504    0.08714    0.20642
   29    25   -0.01930    0.08163    0.18916
   29    26   -0.02371    0.07452    0.16734
   29    27   -0.02810    0.06573    0.13972
   29    28   -0.03227    0.05523    0.10390
   29    29   -0.03594    0.04313    0.05176
   29    30   -0.03884    0.02963    0.06003
   29    31   -0.04070    0.01509    0.11091
   30     0    0.01248    0.00629    0.09204
   30     1    0.01241    0.01255    0.10925
   30     2    0.01231    0.01878    0.12462
   30     3    0.01217    0.02494    0.13858
   30     4    0.01198    0.03102    0.15139
   30     5    0.01175    0.03700    0.16322
   30     6    0.01147    0.04285    0.17418
   30     7    0.01114    0.04856    0.18432
   30     8    0.01076    0.05408    0.19369
   30     9    0.01032    0.05941    0.20232
   30    10    0.00982    0.06450    0.21022
   30    11    0.00925    0.06934    0.21737
   30    12    0.00860    0.07387    0.22376
   30    13    0.00787    0.07807    0.22936
   30    14    0.00704    0.08189    0.23412
   30    15    0.00610    0.08528    0.23797
   30    16    0.00503    0.08818    0.24082
   30    17    0.00381    0.09053    0.24257
   30    18    0.00243    0.09224    0.24308
   30    19    0.00087    0.09324    0.24220
   30    20   -0.00090    0.09341    0.23973
   30    21   -0.00288    0.09266    0.23545
   30    22   -0.00509    0.09086    0.22908
   30    23   -0.00752    0.08788    0.22031
   30    24   -0.01014    0.08362    0.20877
   30    25   -0.01292    0.07795    0.19403
   30    26   -0.01577    0.07079    0.17552
   30    27   -0.01858    0.06211    0.15250
   30    28   -0.02123    0.05193    0.12369
   30    29   -0.02354    0.04037    0.08623
   30    30   -0.02534    0.02763    0.02605
   30    31   -0.02650    0.01404    0.07198
   31     0    0.00623    0.00625    0.07204
   31     1    0.00619    0.01248    0.09177
   31     2    0.00614    0.01866    0.10883
   31     3    0.00607    0.02479    0.12406
   31     4    0.00598    0.03083    0.13790
   31     5    0.00586    0.03677    0.15060
   31     6    0.00572    0.04258    0.16231
   31     7    0.00555    0.04824    0.17315
   31     8    0.00536    0.05372    0.18317
   31     9    0.00514    0.05899    0.19242
   31    10    0.00489    0.06403    0.20092
   31    11    0.00460    0.06881    0.20867
   31    12    0.00428    0.07328    0.21567
   31    13    0.00391    0.07741    0.22188
   31    14    0.00349    0.08115    0.22728
   31    15    0.00302    0.08445    0.23180
   31    16    0.00248    0.08725    0.23537
   31    17    0.00187    0.08948    0.23791
   31    18    0.00117    0.09106    0.23930
   31    19    0.00039    0.09191    0.23940
   31    20   -0.00050    0.09193    0.23805
   31    21   -0.00149    0.09102    0.23505
   31    22   -0.00260    0.08905    0.23018
   31    23   -0.00380    0.08593    0.22319
   31    24   -0.00510    0.08153    0.21378
   31    25   -0.00647    0.07578    0.20160
   31    26   -0.00787    0.06862    0.18626
   31    27   -0.00924    0.06002    0.16726
   31    28   -0.01053    0.05003    0.14388
   31    29   -0.01164    0.03879    0.11488
   31    30   -0.01251    0.02650    0.07716
   31    31   -0.01306    0.01345    0.00891
